IDX,Direction,TYPE,SPEED,X(LONG),Y(LATI),DirType,country
76817,120,2,0,13.316281,52.464438,1,Germany
6673167,32,2,50,13.344155497028376,52.478385318673965,1,Germany
186472,89,2,50,13.318562298358795,52.45414728142953,1,Germany
3888727,119,6,30,13.315824,52.464554,1,Germany
1622397,1,6,50,13.328343417161921,52.470049732125126,1,Germany
4290000,354,2,50,13.33096470552254,52.49069146581923,1,Germany
12327181,235,6,50,13.34872680902489,52.51462841487801,1,Germany
8603271,288,6,,13.348392,52.500762,1,Germany
186471,308,2,0,13.341952937603,52.518077640154,1,Germany
3907077,341,6,50,13.331098279762267,52.49577923737782,1,Germany
2358138,267,6,80,13.415955888916002,52.460739438804275,1,Germany
1278297,275,2,,13.402979777303,52.46343513561,1,Germany
2437798,89,6,80,13.416565523803792,52.4605765085019,1,Germany
2260511,77,2,,13.375471296958937,52.45545198618494,1,Germany
4433974,0,2,50,13.385621728836062,52.46950195089591,1,Germany
62646,167,6,30,13.439387,52.411831,1,Germany
10727675,294,2,50,13.282657899461428,52.53360568935782,1,Germany
1844676,88,6,80,13.4399641270141,52.462747683596,1,Germany
1869208,225,2,,13.336058048935,52.542327127812,1,Germany
38576,265,6,80,13.439955490587144,52.46284759896865,1,Germany
135148,115,2,50,13.282070269771983,52.53384106478422,1,Germany
12428607,16,2,50,13.430321084655754,52.55124333421929,1,Germany
16010,280,6,80,13.487050169311505,52.51251182336138,1,Germany
337829,87,2,50,13.310180322549,52.567944598811,1,Germany
3620887,156,2,50,13.285334224536893,52.595062926768804,1,Germany
862670,93,6,50,13.309480906745907,52.567970260599665,1,Germany
11173352,308,2,50,13.372181689076577,52.50505222830721,1,Germany
6594607,6,2,50,13.386504093254093,52.48982486100247,1,Germany
12893848,339,2,0,13.372240724328472,52.50507770454293,1,Germany
78420,320,2,50,13.37699815211487,52.50187889699233,1,Germany
12312133,96,2,50,13.376925996364589,52.55631180047349,1,Germany
77663,232,6,50,13.357244228145,52.553347149722,1,Germany
86575,90,2,50,13.414112406729691,52.55364908222308,1,Germany
